<?xml version="1.0" encoding="UTF-8" standalone="no"?>
<!-- Generator: Adobe Fireworks CS6, Export SVG Extension by Aaron Beall (http://fireworks.abeall.com) . Version: 0.6.1  -->

<svg
   xmlns:dc="http://purl.org/dc/elements/1.1/"
   xmlns:cc="http://creativecommons.org/ns#"
   xmlns:rdf="http://www.w3.org/1999/02/22-rdf-syntax-ns#"
   xmlns:svg="http://www.w3.org/2000/svg"
   xmlns="http://www.w3.org/2000/svg"
   xmlns:sodipodi="http://sodipodi.sourceforge.net/DTD/sodipodi-0.dtd"
   xmlns:inkscape="http://www.inkscape.org/namespaces/inkscape"
   id="icones03_flat.fw-variable"
   viewBox="0 0 110 110"
   style="background-color:#ffffff00"
   version="1.1"
   xml:space="preserve"
   x="0px"
   y="0px"
   width="110px"
   height="110px"
   inkscape:version="0.48.4 r9939"
   sodipodi:docname="digital_output.svg"><metadata
   id="metadata3023"><rdf:RDF><cc:Work
       rdf:about=""><dc:format>image/svg+xml</dc:format><dc:type
         rdf:resource="http://purl.org/dc/dcmitype/StillImage" /><dc:title></dc:title></cc:Work></rdf:RDF></metadata><sodipodi:namedview
   pagecolor="#ffffff"
   bordercolor="#666666"
   borderopacity="1"
   objecttolerance="10"
   gridtolerance="10"
   guidetolerance="10"
   inkscape:pageopacity="0"
   inkscape:pageshadow="2"
   inkscape:window-width="1680"
   inkscape:window-height="988"
   id="namedview3021"
   showgrid="false"
   inkscape:zoom="4.9811858"
   inkscape:cx="30.823886"
   inkscape:cy="62.934296"
   inkscape:window-x="1272"
   inkscape:window-y="-8"
   inkscape:window-maximized="1"
   inkscape:current-layer="Layer%20118" />
	<defs
   id="defs3006">
		<!-- Library -->
		<symbol
   id="variable"
   overflow="visible">
			<g
   id="Layer%20119">
				<path
   id="Ellipse10"
   d="M -53 -20.16 C -53 -49.4315 -29.2715 -73.16 0 -73.16 C 29.2715 -73.16 53 -49.4315 53 -20.16 C 53 9.1115 29.2715 32.84 0 32.84 C -29.2715 32.84 -53 9.1115 -53 -20.16 Z"
   fill="#333333" />
				<g
   id="g3011">
					<text
   mask="url(#mask2)"
   x="-43"
   y="81"
   width="87"
   fill="#00d96d"
   style="font-size: 160px; color: #00d96d; font-family: Calibri; text-align: left; "
   id="text3013"><tspan
     id="tspan3015">X</tspan></text>

				</g>
			</g>

		</symbol>
		<!-- End Library -->
					<mask
   id="mask2">
						<path
   id="Ellipse11"
   d="M -53 -20.552 C -53 -49.8235 -29.2715 -73.552 0 -73.552 C 29.2715 -73.552 53 -49.8235 53 -20.552 C 53 8.7195 29.2715 32.448 0 32.448 C -29.2715 32.448 -53 8.7195 -53 -20.552 Z"
   fill="#ffffff" />
					</mask>
	</defs>
	<g
   id="Layer%20118">
		
	<path
   sodipodi:type="arc"
   style="fill:#4d4d4d;stroke:#000000;stroke-width:0.35433071999999999;stroke-linecap:round;stroke-linejoin:round;stroke-miterlimit:4;stroke-opacity:1;stroke-dasharray:none;stroke-dashoffset:0"
   id="path3025"
   sodipodi:cx="54.906605"
   sodipodi:cy="54.691883"
   sodipodi:rx="53.30056"
   sodipodi:ry="52.899052"
   d="m 108.20716,54.691883 a 53.30056,52.899052 0 1 1 -106.6011152,0 53.30056,52.899052 0 1 1 106.6011152,0 z"
   transform="translate(0.20075578,-3.5828097e-7)" /><text
   xml:space="preserve"
   style="font-size:61.95178986px;font-style:normal;font-weight:normal;line-height:125%;letter-spacing:0px;word-spacing:0px;fill:#ff6600;fill-opacity:1;stroke:none;font-family:Sans"
   x="10.710287"
   y="77.06395"
   id="text3027"
   sodipodi:linespacing="125%"><tspan
     sodipodi:role="line"
     id="tspan3029"
     x="10.710287"
     y="77.06395">AO</tspan></text>
</g>
</svg>