{
  "devices": [
    {
      "id": 11111111,
      "name": "Debug LED",
      "type": "device_output_digital",
      "data": {
        "pin": 13,
        "initial_state": 0
      }
    },
    {
      "id": 22222222,
      "name": "Left Bumper",
      "type": "device_input_digital",
      "data": {
        "img_id": "device_bot_bumper_left",
        "pin": 8,
        "active_type": 1
      }
    },
    {
      "id": 33333333,
      "name": "Right Bumper",
      "type": "device_input_digital",
      "data": {
        "img_id": "device_bot_bumper_right",
        "pin": 7,
        "active_type": 1
      }
    },
    {
      "id": 44444444,
      "name": "Left Motor",
      "type": "device_motor",
      "data": {
        "pin_1": 3,
        "pin_2": 5,
        "initial_speed": 0
      }
    },
    {
      "id": 55555555,
      "name": "Right Motor",
      "type": "device_motor",
      "data": {
        "pin_1": 6,
        "pin_2": 11,
        "initial_speed": 0
      }
    },
    {
      "id": 66666666,
      "name": "Knob",
      "type": "device_input_analog",
      "data": {
        "img_id": "device_knob",
        "pin": 0
      }
    },
    {
      "id": 77777777,
      "name": "Blue LED",
      "type": "device_output_analog",
      "data": {
        "img_id": "device_led_blue",
        "pin": 9,
        "initial_value": 0
      }
    },
    {
      "id": 88888888,
      "name": "Red LED",
      "type": "device_output_analog",
      "data": {
        "img_id": "device_led_red",
        "pin": 6,
        "initial_value": 0
      }
    }
  ],
  "variables": [
    {
      "id": 87654321,
      "name": "Var Bool",
      "type": "variable_bool",
      "data": {
        "initial_value": 1
      }
    },
    {
      "id": 12345678,
      "name": "Var Byte",
      "type": "variable_byte",
      "data": {
        "initial_value": 28
      }
    },
    {
      "id": 12121212,
      "name": "Var Int",
      "type": "variable_int",
      "data": {
        "initial_value": 288
      }
    },
    {
      "id": 23232323,
      "name": "Long Red",
      "type": "variable_long",
      "data": {
        "initial_value": 0
      }
    },
    {
      "id": 34343434,
      "name": "Long Yellow",
      "type": "variable_long",
      "data": {
        "initial_value": 0
      }
    }
  ],
  "nodes": [
    {
      "name": "Farrusco snake",
      "type": "node_root",
      "id": 0,
      "x": 345.25,
      "y": 30.75,
      "data": {
        "tags": "farrusco robot snake",
        "description": "Make the Farrusco robot drive so that it draws a S pattern on the floor."
      }
    },
    {
      "name": "",
      "type": "node_sequence",
      "id": 1,
      "x": 343.25,
      "y": 149.75,
      "data": {}
    },
    {
      "name": "turn right",
      "type": "node_sequence",
      "id": 2,
      "x": 179.25,
      "y": 335.75,
      "data": {}
    },
    {
      "name": "",
      "type": "node_function",
      "id": 3,
      "x": 62.25,
      "y": 475.75,
      "data": {
        "function_type": 0,
        "source_1": 0,
        "value_1": 255,
        "source_2": 2,
        "value_2": 44444444
      }
    },
    {
      "name": "",
      "type": "node_function",
      "id": 4,
      "x": 174.25,
      "y": 477.75,
      "data": {
        "function_type": 0,
        "source_1": 0,
        "value_1": 100,
        "source_2": 2,
        "value_2": 55555555
      }
    },
    {
      "name": "",
      "type": "node_delay_time",
      "id": 5,
      "x": 281.25,
      "y": 478.75,
      "data": {
        "function_type": 1,
        "source_1": 0,
        "value_1": 800,
        "source_2": 0,
        "value_2": 88,
        "min_in": 0,
        "max_in": 1023,
        "min_out": 0,
        "max_out": 255
      }
    },
    {
      "name": "turn left",
      "type": "node_sequence",
      "id": 6,
      "x": 513.75,
      "y": 335.25,
      "data": {}
    },
    {
      "name": "",
      "type": "node_function",
      "id": 7,
      "x": 396.75,
      "y": 475.25,
      "data": {
        "function_type": 0,
        "source_1": 0,
        "value_1": 100,
        "source_2": 2,
        "value_2": 44444444
      }
    },
    {
      "name": "",
      "type": "node_function",
      "id": 8,
      "x": 508.75,
      "y": 477.25,
      "data": {
        "function_type": 0,
        "source_1": 0,
        "value_1": 255,
        "source_2": 2,
        "value_2": 55555555
      }
    },
    {
      "name": "",
      "type": "node_delay_time",
      "id": 9,
      "x": 615.75,
      "y": 478.25,
      "data": {
        "function_type": 1,
        "source_1": 0,
        "value_1": 800,
        "source_2": 0,
        "value_2": 88,
        "min_in": 0,
        "max_in": 1023,
        "min_out": 0,
        "max_out": 255
      }
    }
  ],
  "connections": [
    "0:1",
    "1:2",
    "1:6",
    "2:3",
    "2:4",
    "2:5",
    "6:7",
    "6:8",
    "6:9"
  ]
}