{
  "devices": [
    {
      "id": 11111111,
      "name": "Debug LED",
      "type": "device_output_digital",
      "data": {
        "pin": 13,
        "initial_state": 0
      }
    },
    {
      "id": 22222222,
      "name": "Left Bumper",
      "type": "device_input_digital",
      "data": {
        "img_id": "device_bot_bumper_left",
        "pin": 8,
        "active_type": 1
      }
    },
    {
      "id": 33333333,
      "name": "Right Bumper",
      "type": "device_input_digital",
      "data": {
        "img_id": "device_bot_bumper_right",
        "pin": 7,
        "active_type": 1
      }
    },
    {
      "id": 44444444,
      "name": "Left Motor",
      "type": "device_motor",
      "data": {
        "img_id": "device_bot_motor_left",
        "pin_1": 3,
        "pin_2": 5,
        "initial_speed": 0
      }
    },
    {
      "id": 55555555,
      "name": "Right Motor",
      "type": "device_motor",
      "data": {
        "img_id": "device_bot_motor_right",
        "pin_1": 6,
        "pin_2": 11,
        "initial_speed": 0
      }
    }
  ],
  "variables": [],
  "nodes": [
    {
      "name": "Farrusco Bump&Back",
      "type": "node_root",
      "id": 0,
      "x": 525,
      "y": 0,
      "data": {
        "tags": "farrusco robot automonous",
        "description": "Make the Farrusco robot drive forward untill it bombs something, than it moves back for a bit."
      }
    },
    {
      "name": "",
      "type": "node_sequence",
      "id": 1,
      "x": 525,
      "y": 150,
      "data": {}
    },
    {
      "name": "move front",
      "type": "node_sequence",
      "id": 2,
      "x": 225,
      "y": 375,
      "data": {}
    },
    {
      "name": "",
      "type": "node_function",
      "id": 3,
      "x": 150,
      "y": 600,
      "data": {
        "function_type": 0,
        "source_1": 0,
        "value_1": 255,
        "source_2": 2,
        "value_2": 44444444
      }
    },
    {
      "name": "",
      "type": "node_function",
      "id": 4,
      "x": 300,
      "y": 600,
      "data": {
        "function_type": 0,
        "source_1": 0,
        "value_1": 255,
        "source_2": 2,
        "value_2": 55555555
      }
    },
    {
      "name": "",
      "type": "node_delay_time",
      "id": 5,
      "x": 450,
      "y": 375,
      "data": {
        "function_type": 1,
        "source_1": 0,
        "value_1": 1000,
        "source_2": 0,
        "value_2": 88,
        "min_in": 0,
        "max_in": 1023,
        "min_out": 0,
        "max_out": 255
      }
    },
    {
      "name": "move back",
      "type": "node_sequence",
      "id": 6,
      "x": 675,
      "y": 375,
      "data": {}
    },
    {
      "name": "",
      "type": "node_function",
      "id": 7,
      "x": 600,
      "y": 600,
      "data": {
        "function_type": 0,
        "source_1": 0,
        "value_1": -255,
        "source_2": 2,
        "value_2": 44444444
      }
    },
    {
      "name": "",
      "type": "node_function",
      "id": 8,
      "x": 750,
      "y": 600,
      "data": {
        "function_type": 0,
        "source_1": 0,
        "value_1": -255,
        "source_2": 2,
        "value_2": 55555555
      }
    },
    {
      "name": "",
      "type": "node_delay_time",
      "id": 9,
      "x": 900,
      "y": 375,
      "data": {
        "function_type": 1,
        "source_1": 0,
        "value_1": 1000,
        "source_2": 0,
        "value_2": 88,
        "min_in": 0,
        "max_in": 1023,
        "min_out": 0,
        "max_out": 255
      }
    }
  ],
  "connections": [
    "0:1",
    "1:2",
    "1:5",
    "1:6",
    "1:9",
    "2:3",
    "2:4",
    "6:7",
    "6:8"
  ]
}