{
  "devices": [
    {
      "id": 11111111,
      "name": "Debug LED",
      "type": "device_output_digital",
      "data": {
        "img_id": "led_red",
        "pin": 13,
        "initial_state": 0
      }
    },
    {
      "id": 22222222,
      "name": "Left Bumper",
      "type": "device_input_digital",
      "data": {
        "img_id": "bumper_left",
        "pin": 8,
        "active_type": 1
      }
    },
    {
      "id": 33333333,
      "name": "Right Bumper",
      "type": "device_input_digital",
      "data": {
        "img_id": "bumper_right",
        "pin": 7,
        "active_type": 1
      }
    },
    {
      "id": 44444444,
      "name": "Left Motor",
      "type": "device_motor",
      "data": {
        "img_id": "motor_left",
        "pin_1": 2,
        "pin_2": 3,
        "initial_speed": 0
      }
    },
    {
      "id": 55555555,
      "name": "Right Motor",
      "type": "device_motor",
      "data": {
        "img_id": "motor_right",
        "pin_1": 4,
        "pin_2": 5,
        "initial_speed": 0
      }
    },
    {
      "id": 66666666,
      "name": "Knob",
      "type": "device_input_analog",
      "data": {
        "img_id": "knob",
        "pin": 0
      }
    },
    {
      "id": 77777777,
      "name": "LED 1",
      "type": "device_output_analog",
      "data": {
        "img_id": "led_green",
        "pin": 9,
        "initial_value": 0
      }
    },
    {
      "id": 88888888,
      "name": "LED 2",
      "type": "device_output_analog",
      "data": {
        "img_id": "led_green",
        "pin": 6,
        "initial_value": 0
      }
    }
  ],
  "variables": [
    {
      "id": 87654321,
      "name": "Var Bool",
      "type": "variable_bool",
      "data": {
        "initial_value": 1
      }
    },
    {
      "id": 12345678,
      "name": "Var Byte",
      "type": "variable_byte",
      "data": {
        "initial_value": 28
      }
    },
    {
      "id": 12121212,
      "name": "Var Int",
      "type": "variable_int",
      "data": {
        "initial_value": 288
      }
    },
    {
      "id": 23232323,
      "name": "Long Red",
      "type": "variable_long",
      "data": {
        "initial_value": 0
      }
    },
    {
      "id": 34343434,
      "name": "Long Yellow",
      "type": "variable_long",
      "data": {
        "initial_value": 0
      }
    }
  ],
  "nodes": [
    {
      "name": "",
      "type": "node_root",
      "id": 0,
      "x": 490,
      "y": 58,
      "data": {}
    },
    {
      "name": "",
      "type": "node_sequence",
      "id": 1,
      "x": 490,
      "y": 140,
      "data": {}
    },
    {
      "name": "move forward",
      "type": "node_sequence",
      "id": 2,
      "x": 253,
      "y": 269,
      "data": {}
    },
    {
      "name": "",
      "type": "node_function",
      "id": 3,
      "x": 202,
      "y": 391,
      "data": {
        "function_type": 0,
        "source_1": 0,
        "value_1": 255,
        "source_2": 2,
        "value_2": 44444444
      }
    },
    {
      "name": "",
      "type": "node_function",
      "id": 4,
      "x": 301,
      "y": 393,
      "data": {
        "function_type": 0,
        "source_1": 0,
        "value_1": 255,
        "source_2": 2,
        "value_2": 55555555
      }
    },
    {
      "name": "loop",
      "type": "node_status_override",
      "id": 5,
      "x": 803,
      "y": 269,
      "data": {
        "failure_override": 1,
        "running_override": 1,
        "success_override": 2
      }
    },
    {
      "name": "",
      "type": "node_parallel",
      "id": 6,
      "x": 803,
      "y": 370,
      "data": {
        "completion_policy": 0,
        "failure_policy": 1
      }
    },
    {
      "name": "",
      "type": "node_status_override",
      "id": 7,
      "x": 559,
      "y": 504,
      "data": {
        "failure_override": 1,
        "running_override": 1,
        "success_override": 2
      }
    },
    {
      "name": "check left bumper",
      "type": "node_sequence",
      "id": 8,
      "x": 559,
      "y": 580,
      "data": {}
    },
    {
      "name": "",
      "type": "node_test",
      "id": 9,
      "x": 414,
      "y": 709,
      "data": {
        "test": 0,
        "source_1": 2,
        "value_1": 22222222,
        "source_2": 0,
        "value_2": 1
      }
    },
    {
      "name": "move back-right",
      "type": "node_sequence",
      "id": 10,
      "x": 591.5,
      "y": 709.5,
      "data": {}
    },
    {
      "name": "",
      "type": "node_function",
      "id": 11,
      "x": 540.5,
      "y": 832.5,
      "data": {
        "function_type": 0,
        "source_1": 0,
        "value_1": -255,
        "source_2": 2,
        "value_2": 44444444
      }
    },
    {
      "name": "",
      "type": "node_function",
      "id": 12,
      "x": 639.5,
      "y": 834.5,
      "data": {
        "function_type": 0,
        "source_1": 0,
        "value_1": -150,
        "source_2": 2,
        "value_2": 55555555
      }
    },
    {
      "name": "",
      "type": "node_delay_time",
      "id": 13,
      "x": 707,
      "y": 710,
      "data": {
        "function_type": 1,
        "source_1": 0,
        "value_1": 200,
        "source_2": 0,
        "value_2": 88,
        "min_in": 0,
        "max_in": 1023,
        "min_out": 0,
        "max_out": 255
      }
    },
    {
      "name": "",
      "type": "node_status_override",
      "id": 14,
      "x": 1038.5,
      "y": 507.75,
      "data": {
        "failure_override": 1,
        "running_override": 1,
        "success_override": 2
      }
    },
    {
      "name": "check right bumper",
      "type": "node_sequence",
      "id": 15,
      "x": 1038.5,
      "y": 583.75,
      "data": {}
    },
    {
      "name": "",
      "type": "node_test",
      "id": 16,
      "x": 893.5,
      "y": 712.75,
      "data": {
        "test": 0,
        "source_1": 2,
        "value_1": 33333333,
        "source_2": 0,
        "value_2": 1
      }
    },
    {
      "name": "move back-left",
      "type": "node_sequence",
      "id": 17,
      "x": 1071,
      "y": 713.25,
      "data": {}
    },
    {
      "name": "",
      "type": "node_function",
      "id": 18,
      "x": 1020,
      "y": 836.25,
      "data": {
        "function_type": 0,
        "source_1": 0,
        "value_1": -150,
        "source_2": 2,
        "value_2": 44444444
      }
    },
    {
      "name": "",
      "type": "node_function",
      "id": 19,
      "x": 1119,
      "y": 838.25,
      "data": {
        "function_type": 0,
        "source_1": 0,
        "value_1": -255,
        "source_2": 2,
        "value_2": 55555555
      }
    },
    {
      "name": "",
      "type": "node_delay_time",
      "id": 20,
      "x": 1186.5,
      "y": 713.75,
      "data": {
        "function_type": 1,
        "source_1": 0,
        "value_1": 200,
        "source_2": 0,
        "value_2": 88,
        "min_in": 0,
        "max_in": 1023,
        "min_out": 0,
        "max_out": 255
      }
    }
  ],
  "connections": [
    "0:1",
    "1:2",
    "1:5",
    "2:3",
    "2:4",
    "5:6",
    "6:7",
    "6:14",
    "7:8",
    "8:9",
    "8:10",
    "8:13",
    "10:11",
    "10:12",
    "14:15",
    "15:16",
    "15:17",
    "15:20",
    "17:18",
    "17:19"
  ]
}