{
  "devices": [
    {
      "id": 11111111,
      "name": "Debug LED",
      "type": "device_output_digital",
      "data": {
        "pin": 13,
        "initial_state": 0
      }
    },
    {
      "id": 22222222,
      "name": "Left Bumper",
      "type": "device_input_digital",
      "data": {
        "pin": 8,
        "active_type": 1
      }
    },
    {
      "id": 33333333,
      "name": "Right Bumper",
      "type": "device_input_digital",
      "data": {
        "pin": 7,
        "active_type": 1
      }
    },
    {
      "id": 44444444,
      "name": "Left Motor",
      "type": "device_motor",
      "data": {
        "pin_1": 2,
        "pin_2": 3,
        "initial_speed": 0
      }
    },
    {
      "id": 55555555,
      "name": "Right Motor",
      "type": "device_motor",
      "data": {
        "pin_1": 4,
        "pin_2": 5,
        "initial_speed": 0
      }
    },
    {
      "id": 66666666,
      "name": "Knob",
      "type": "device_input_analog",
      "data": {
        "img_id": "knob",
        "pin": 0
      }
    },
    {
      "id": 77777777,
      "name": "Yellow LED",
      "type": "device_output_analog",
      "data": {
        "img_id": "led_yellow",
        "pin": 9,
        "initial_value": 0
      }
    },
    {
      "id": 88888888,
      "name": "Red LED",
      "type": "device_output_analog",
      "data": {
        "img_id": "led_red",
        "pin": 6,
        "initial_value": 0
      }
    }
  ],
  "variables": [
    {
      "id": 87654321,
      "name": "Var Bool",
      "type": "variable_bool",
      "data": {
        "initial_value": 1
      }
    },
    {
      "id": 12345678,
      "name": "Var Byte",
      "type": "variable_byte",
      "data": {
        "initial_value": 28
      }
    },
    {
      "id": 12121212,
      "name": "Var Int",
      "type": "variable_int",
      "data": {
        "initial_value": 288
      }
    },
    {
      "id": 23232323,
      "name": "Long Red",
      "type": "variable_long",
      "data": {
        "initial_value": 0
      }
    },
    {
      "id": 34343434,
      "name": "Long Yellow",
      "type": "variable_long",
      "data": {
        "initial_value": 0
      }
    }
  ],
  "nodes": [
    {
      "name": "",
      "type": "node_root",
      "id": 0,
      "x": 451,
      "y": 177,
      "data": {}
    },
    {
      "name": "",
      "type": "node_parallel",
      "id": 1,
      "x": 449,
      "y": 269,
      "data": {
        "completion_policy": 0,
        "failure_policy": 1
      }
    },
    {
      "name": "",
      "type": "node_status_override",
      "id": 2,
      "x": 214,
      "y": 401,
      "data": {
        "failure_override": 1,
        "running_override": 1,
        "success_override": 1
      }
    },
    {
      "name": "",
      "type": "node_sequence",
      "id": 3,
      "x": 212,
      "y": 474,
      "data": {}
    },
    {
      "name": "",
      "type": "node_function",
      "id": 4,
      "x": 97,
      "y": 622,
      "data": {
        "function_type": 0,
        "source_1": 0,
        "value_1": 0,
        "source_2": 2,
        "value_2": 77777777,
        "source_3": 0,
        "value_3": 1023,
        "source_4": 0,
        "value_4": 0,
        "source_5": 0,
        "value_5": 100,
        "source_6": 2,
        "value_6": 77777777
      }
    },
    {
      "name": "",
      "type": "node_delay_time",
      "id": 5,
      "x": 171,
      "y": 623,
      "data": {
        "source_1": 2,
        "value_1": 66666666
      }
    },
    {
      "name": "",
      "type": "node_function",
      "id": 6,
      "x": 251,
      "y": 625,
      "data": {
        "function_type": 0,
        "source_1": 0,
        "value_1": 255,
        "source_2": 2,
        "value_2": 77777777,
        "source_3": 0,
        "value_3": 12345,
        "source_4": 0,
        "value_4": 0,
        "source_5": 0,
        "value_5": 12345678,
        "source_6": 0,
        "value_6": 99999999
      }
    },
    {
      "name": "",
      "type": "node_delay_time",
      "id": 7,
      "x": 334,
      "y": 627,
      "data": {
        "source_1": 2,
        "value_1": 66666666
      }
    },
    {
      "name": "",
      "type": "node_status_override",
      "id": 8,
      "x": 690,
      "y": 404.5,
      "data": {
        "failure_override": 1,
        "running_override": 1,
        "success_override": 1
      }
    },
    {
      "name": "",
      "type": "node_function",
      "id": 9,
      "x": 691,
      "y": 505,
      "data": {
        "function_type": 1,
        "source_1": 2,
        "value_1": 66666666,
        "source_2": 0,
        "value_2": 0,
        "source_3": 0,
        "value_3": 1024,
        "source_4": 0,
        "value_4": 0,
        "source_5": 0,
        "value_5": 255,
        "source_6": 2,
        "value_6": 88888888
      }
    }
  ],
  "connections": [
    "0:1",
    "1:2",
    "1:8",
    "2:3",
    "3:4",
    "3:5",
    "3:6",
    "3:7",
    "8:9"
  ]
}