<?xml version="1.0" encoding="UTF-8" standalone="no"?>
<svg width="24px" height="24px" viewBox="0 0 24 24" version="1.1" xmlns="http://www.w3.org/2000/svg" xmlns:xlink="http://www.w3.org/1999/xlink" xmlns:sketch="http://www.bohemiancoding.com/sketch/ns">
    <!-- Generator: Sketch 3.2.2 (9983) - http://www.bohemiancoding.com/sketch -->
    <title>play</title>
    <desc>Created with Sketch.</desc>
    <defs></defs>
    <g id="Pages" stroke="none" stroke-width="1" fill="none" fill-rule="evenodd" sketch:type="MSPage">
        <g id="2.07" sketch:type="MSArtboardGroup" transform="translate(-329.000000, -144.000000)">
            <g id="play" sketch:type="MSLayerGroup" transform="translate(329.000000, 144.000000)">
                <g id="Rectangle-190" stroke="#E8E8E8" sketch:type="MSShapeGroup">
                    <rect x="0" y="0" width="24" height="24"></rect>
                </g>
                <path d="M6.64255065,4.59173425 L6.64255065,19.4082657 L17.3574494,11.9899863 L6.64255065,4.59173425 Z" id="Path-56" fill="#000000" sketch:type="MSShapeGroup"></path>
            </g>
        </g>
    </g>
</svg>