<?xml version="1.0" encoding="UTF-8" standalone="no"?>
<!-- Generator: Adobe Fireworks CS6, Export SVG Extension by Aaron Beall (http://fireworks.abeall.com) . Version: 0.6.1  -->

<svg
   xmlns:dc="http://purl.org/dc/elements/1.1/"
   xmlns:cc="http://creativecommons.org/ns#"
   xmlns:rdf="http://www.w3.org/1999/02/22-rdf-syntax-ns#"
   xmlns:svg="http://www.w3.org/2000/svg"
   xmlns="http://www.w3.org/2000/svg"
   xmlns:xlink="http://www.w3.org/1999/xlink"
   xmlns:sodipodi="http://sodipodi.sourceforge.net/DTD/sodipodi-0.dtd"
   xmlns:inkscape="http://www.inkscape.org/namespaces/inkscape"
   id="icones03_flat.fw-variable"
   viewBox="0 0 110 110"
   style="background-color:#ffffff00"
   version="1.1"
   xml:space="preserve"
   x="0px"
   y="0px"
   width="110px"
   height="110px"
   inkscape:version="0.91 r13725"
   sodipodi:docname="led_green.svg"><metadata
     id="metadata3023"><rdf:RDF><cc:Work
         rdf:about=""><dc:format>image/svg+xml</dc:format><dc:type
           rdf:resource="http://purl.org/dc/dcmitype/StillImage" /><dc:title></dc:title></cc:Work></rdf:RDF></metadata><sodipodi:namedview
     pagecolor="#ffffff"
     bordercolor="#666666"
     borderopacity="1"
     objecttolerance="10"
     gridtolerance="10"
     guidetolerance="10"
     inkscape:pageopacity="0"
     inkscape:pageshadow="2"
     inkscape:window-width="1366"
     inkscape:window-height="705"
     id="namedview3021"
     showgrid="false"
     inkscape:zoom="4.9811858"
     inkscape:cx="30.823886"
     inkscape:cy="62.934296"
     inkscape:window-x="284"
     inkscape:window-y="1072"
     inkscape:window-maximized="1"
     inkscape:current-layer="Layer%20118" /><defs
     id="defs3006"><linearGradient
       inkscape:collect="always"
       id="linearGradient4174"><stop
         style="stop-color:#00ff00;stop-opacity:1"
         offset="0"
         id="stop4176" /><stop
         style="stop-color:#008000;stop-opacity:1"
         offset="1"
         id="stop4178" /></linearGradient><!-- Library --><symbol
       id="variable"
       overflow="visible"><g
         id="Layer%20119"><path
           id="Ellipse10"
           d="M -53 -20.16 C -53 -49.4315 -29.2715 -73.16 0 -73.16 C 29.2715 -73.16 53 -49.4315 53 -20.16 C 53 9.1115 29.2715 32.84 0 32.84 C -29.2715 32.84 -53 9.1115 -53 -20.16 Z"
           fill="#333333" /><g
           id="g3011"><text
             mask="url(#mask2)"
             x="-43"
             y="81"
             width="87"
             fill="#00d96d"
             style="font-size: 160px; color: #00d96d; font-family: Calibri; text-align: left; "
             id="text3013"><tspan
               id="tspan3015">X</tspan></text>
</g></g></symbol><!-- End Library --><mask
       id="mask2"><path
         id="Ellipse11"
         d="M -53 -20.552 C -53 -49.8235 -29.2715 -73.552 0 -73.552 C 29.2715 -73.552 53 -49.8235 53 -20.552 C 53 8.7195 29.2715 32.448 0 32.448 C -29.2715 32.448 -53 8.7195 -53 -20.552 Z"
         fill="#ffffff" /></mask><filter
       color-interpolation-filters="sRGB"
       inkscape:collect="always"
       id="filter20051"><feGaussianBlur
         inkscape:collect="always"
         stdDeviation="0.25660124"
         id="feGaussianBlur20053" /></filter><radialGradient
       inkscape:collect="always"
       xlink:href="#linearGradient20089"
       id="radialGradient20135"
       gradientUnits="userSpaceOnUse"
       gradientTransform="matrix(1,0,0,1.245733,-176.90849,-389.75436)"
       cx="63.663937"
       cy="967.67432"
       fx="63.663937"
       fy="967.67432"
       r="32.205147" /><linearGradient
       id="linearGradient20089"
       inkscape:collect="always"><stop
         id="stop20091"
         offset="0"
         style="stop-color:#ff2f1c;stop-opacity:1" /><stop
         id="stop20093"
         offset="1"
         style="stop-color:#860c07;stop-opacity:1" /></linearGradient><filter
       color-interpolation-filters="sRGB"
       inkscape:collect="always"
       id="filter20047"><feGaussianBlur
         inkscape:collect="always"
         stdDeviation="0.35662082"
         id="feGaussianBlur20049" /></filter><filter
       color-interpolation-filters="sRGB"
       inkscape:collect="always"
       id="filter20059"><feGaussianBlur
         inkscape:collect="always"
         stdDeviation="0.2041864"
         id="feGaussianBlur20061" /></filter><filter
       color-interpolation-filters="sRGB"
       inkscape:collect="always"
       id="filter20063"><feGaussianBlur
         inkscape:collect="always"
         stdDeviation="0.24324272"
         id="feGaussianBlur20065" /></filter><filter
       color-interpolation-filters="sRGB"
       inkscape:collect="always"
       id="filter19887"
       x="-0.038115554"
       width="1.0762311"
       y="-0.14089815"
       height="1.2817963"><feGaussianBlur
         inkscape:collect="always"
         stdDeviation="0.42122008"
         id="feGaussianBlur19889" /></filter><radialGradient
       inkscape:collect="always"
       xlink:href="#linearGradient20089"
       id="radialGradient20137"
       gradientUnits="userSpaceOnUse"
       gradientTransform="matrix(1,0,0,1.245733,-176.90849,-389.75436)"
       cx="63.663937"
       cy="967.67432"
       fx="63.663937"
       fy="967.67432"
       r="32.205147" /><radialGradient
       r="32.205147"
       fy="967.67432"
       fx="63.663937"
       cy="967.67432"
       cx="63.663937"
       gradientTransform="matrix(1,0,0,1.245733,-176.90849,-389.75436)"
       gradientUnits="userSpaceOnUse"
       id="radialGradient3819"
       xlink:href="#linearGradient4174"
       inkscape:collect="always" /></defs><g
     id="Layer%20118"><path
       sodipodi:type="arc"
       style="fill:#4d4d4d;stroke:#000000;stroke-width:0.35433071999999999;stroke-linecap:round;stroke-linejoin:round;stroke-miterlimit:4;stroke-opacity:1;stroke-dasharray:none;stroke-dashoffset:0"
       id="path3025"
       sodipodi:cx="54.906605"
       sodipodi:cy="54.691883"
       sodipodi:rx="53.30056"
       sodipodi:ry="52.899052"
       d="m 108.20716,54.691883 a 53.30056,52.899052 0 1 1 -106.6011152,0 53.30056,52.899052 0 1 1 106.6011152,0 z"
       transform="translate(0.20075578,-3.5828097e-7)" /><g
       id="g20126"
       transform="matrix(0.60885975,0,0,0.60885975,124.42518,-457.5714)"
       inkscape:export-filename="E:\Workspace\Arduino\Ardomotic_2\files\Ardomotic\Images\Lights\Leds\led_red.png"
       inkscape:export-xdpi="104.5"
       inkscape:export-ydpi="104.5"><rect
         style="fill:#860c07;fill-opacity:1;fill-rule:evenodd;stroke:#000000;stroke-width:0.95737749px;stroke-linecap:butt;stroke-linejoin:miter;stroke-opacity:1;filter:url(#filter20051)"
         id="rect20108"
         width="84.038086"
         height="18.602409"
         x="-160.97833"
         y="863.79327"
         inkscape:export-filename="E:\Workspace\Arduino\Ardomotic_2\files\Ardomotic\Images\Lights\Leds\led_pur.png"
         inkscape:export-xdpi="50"
         inkscape:export-ydpi="50" /><path
         style="fill:url(#radialGradient20135);fill-opacity:1;stroke:#000000;stroke-width:1px;stroke-linecap:butt;stroke-linejoin:miter;stroke-opacity:1;filter:url(#filter20047)"
         d="m -144.9497,863.88439 0,-48.17495 c 0,-41.48955 63.410293,-41.34527 63.410293,0 l 0,48.17495 z"
         id="path20110"
         inkscape:connector-curvature="0"
         sodipodi:nodetypes="ccccc"
         inkscape:export-filename="E:\Workspace\Arduino\Ardomotic_2\files\Ardomotic\Images\Lights\Leds\led_pur.png"
         inkscape:export-xdpi="50"
         inkscape:export-ydpi="50" /><path
         style="fill:#4d4d4d;stroke:#000000;stroke-width:1px;stroke-linecap:butt;stroke-linejoin:miter;stroke-opacity:1;filter:url(#filter20059)"
         d="m -132.90849,892.14234 -4,0 0,-60.42069 4,0 c 1.67987,8.21378 8.4619,13.71772 17.25387,17.74792 l -17.25387,0 z"
         id="path20112"
         inkscape:connector-curvature="0"
         sodipodi:nodetypes="ccccccc"
         inkscape:export-filename="E:\Workspace\Arduino\Ardomotic_2\files\Ardomotic\Images\Lights\Leds\led_pur.png"
         inkscape:export-xdpi="50"
         inkscape:export-ydpi="50" /><path
         sodipodi:nodetypes="ccccccc"
         inkscape:connector-curvature="0"
         id="path20114"
         d="m -93.184435,892.08429 4,0 0,-60.42072 -14.139105,0.0581 c -10.47399,0 -8.25499,0 -22.73727,0 7.81544,17.21267 21.91758,11.79321 32.876375,17.68981 z"
         style="fill:#4d4d4d;stroke:#000000;stroke-width:1px;stroke-linecap:butt;stroke-linejoin:miter;stroke-opacity:1;filter:url(#filter20063)"
         inkscape:export-filename="E:\Workspace\Arduino\Ardomotic_2\files\Ardomotic\Images\Lights\Leds\led_pur.png"
         inkscape:export-xdpi="50"
         inkscape:export-ydpi="50" /><path
         style="fill:none;stroke:#414141;stroke-width:0.5;stroke-linecap:butt;stroke-linejoin:miter;stroke-miterlimit:4;stroke-opacity:1;stroke-dasharray:none;filter:url(#filter19887)"
         d="m -134.91418,831.35782 c 3.55905,-10.48444 20.99683,-8.20179 26.52272,0.15787"
         id="path20116"
         inkscape:connector-curvature="0"
         sodipodi:nodetypes="cc" /><rect
         inkscape:export-ydpi="50"
         inkscape:export-xdpi="50"
         inkscape:export-filename="E:\Workspace\Arduino\Ardomotic_2\files\Ardomotic\Images\Lights\Leds\led_pur.png"
         y="863.79327"
         x="-160.97833"
         height="18.602409"
         width="84.038086"
         id="rect20118"
         style="opacity:0.68999999;fill:#008000;fill-opacity:1;fill-rule:evenodd;stroke:#000000;stroke-width:0.95737749px;stroke-linecap:butt;stroke-linejoin:miter;stroke-opacity:1;filter:url(#filter20051)" /><path
         inkscape:export-ydpi="50"
         inkscape:export-xdpi="50"
         inkscape:export-filename="E:\Workspace\Arduino\Ardomotic_2\files\Ardomotic\Images\Lights\Leds\led_pur.png"
         sodipodi:nodetypes="ccccc"
         inkscape:connector-curvature="0"
         id="path20120"
         d="m -144.9497,863.88439 0,-48.17495 c 0,-41.48955 63.410293,-41.34527 63.410293,0 l 0,48.17495 z"
         style="opacity:0.68999999;fill:url(#radialGradient3819);fill-opacity:1;stroke:#000000;stroke-width:1px;stroke-linecap:butt;stroke-linejoin:miter;stroke-opacity:1;filter:url(#filter20047)" /></g></g></svg>